first_name,last_name,email,address_id,birth_date,street,city,postal_code
Santheesh,Kumaran,Santheesh@gmail.com,0,16-09-2000,Rajiv Gandhi,Tirupur,641602
Praveen,Kumar,Praveen@gmail.com,0,20-02-2000,Rajiv Gandhi,Tirupur,641602
Arjun,Raj,Arjun@gmail.com,0,14-01-2000,Rajiv Gandhi,Tirupur,641602
Kumaran,Vel,Kumaran@gmail.com,0,20-02-2000,Rajiv Gandhi,Tirupur,641602
Kamal,Paul,Kamal@gmail.com,0,01-12-2000,Rajiv Gandhi,Tirupur,641602
Manoj,Vijay,ManojVijay@gmail.com,0,09-04-2000,Rajiv Gandhi,Tirupur,641602
Mani,Kandan,Mani@gmail.com,0,06-02-2000,Rajiv Gandhi,Tirupur,641602
Naveen,Raj,Naveenraj@gmail.com,0,18-04-2000,Rajiv Gandhi,Tirupur,641602
Vel,Murugan,Velmurugan@gmail.com,0,20-06-2001,Rajiv Gandhi,Tirupur,641602
Pual,Vel,Pualvel@gmail.com,0,21-01-2002,Rajiv Gandhi,Tirupur,641602
Robert,Elisenth,Robert@gmail.com,0,01-01-2000,OMR,Chennai,600028
Abi,Prasanth,Abi@gmail.com,0,04-02-2000,T Nagar,Chennai,600028
Kandan,Vel,Vel@gmail.com,0,17-02-2000,Anna Salai,Chennai,600028
Murugan,Raj,Murugan@gmail.com,0,31-12-2001,Pallavaran,Chennai,600028
Kannan,Maven,Kannan@gmail.com,0,29-02-2000,JJ Nagar,Chennai,600028
Jagan,Raj,Jagan@gmail.com,0,31-03-2001,Kamaraj Nagar,Chennai,600028
Jagadeesh,Kumar,Jagadeesh@gmail.com,0,20-02-2000,Nettukumam,Chennai,600028
Kamesh,Kumar,Kamesh@gmail.com,0,09-12-2000,Chinnamma Kovil,Chennai,600028
Rajesh,Raj,Rajesh@gmail.com,0,09-02-2001,OMR,Chennai,600028
Narendhran,Vel,Narendhran@gmail.com,0,07-12-2000,OMR,Chennai,600028
Benith,Robert,Benith@gmail.com,0,16-09-2000,MaranStreet,Tiruchi,6463456
Gopi,Kamal,Gopi@gmail.com,0,03-03-2000,Thiruvel,Tiruchi,6463456